﻿[
	{
			"_id": "co-50",
			"_parentId": "course",
			"_type": "page",
			"_classes": "banner_01",
			"height":"570",
			"title": "Introdução",
			"displayTitle": "Introdução",
			"pageBody": "",
			"body": "<br>O consumo de vídeo está aumentando exponencialmente. Vamos mostrar a você como contar sua história com Vídeo do Facebook.",
			"_graphic": {
				"src": "course/en/images/contentObjects/landing_01.jpg",
				"alt": "Pessoas olhando para o monitor de um computador em um escritório"
			},
			"linkText": "Visualizar",
			"durationLabel": "Duração:",
			"duration": "2 min",
			"_pageLevelProgress": {
				"_isEnabled": true
			}
	},
	{
		 "_id": "co-100",
		 "_parentId": "course",
		 "_type": "page",
		 "_classes": "banner_01",
		 "height":"570",
		 "title": "Controle onde seus anúncios são exibidos",
		 "displayTitle": "Controle onde seus anúncios são exibidos",
		 "pageBody": "",
		 "body": "Dependendo do tipo de anúncio de vídeo que você criar, ele aparecerá em uma variedade de plataformas, como Facebook e Instagram, e posicionamentos, como o Feed de Notícias.",
		 "_graphic": {
			 "src": "course/en/images/contentObjects/landing_02.jpg",
			 "alt": "Homem olhando para um iPad no ônibus"
		 },
		 "linkText": "Visualizar",
		 "durationLabel": "Duração:",
		 "duration": "4 min",
		 "_pageLevelProgress": {
			 "_isEnabled": true
		 }
 },
 {
			"_id": "co-150",
			"_parentId": "course",
			"_type": "page",
			"_classes": "banner_01",
			"height":"570",
			"title": "Formatos do anúncio",
			"displayTitle": "Formatos do anúncio",
			"pageBody": "",
			"body": "<br>Existem várias maneiras de criar um vídeo envolvente, quer seja por meio de um vídeo padrão ou um carrossel.\n",
			"_graphic": {
				"src": "course/en/images/contentObjects/landing_03.jpg",
				"alt": "Homem digitando no laptop em um banco de piquenique ao ar livre."
			},
			"linkText": "Visualizar",
			"durationLabel": "Duração:",
			"duration": "5 min",
			"_pageLevelProgress": {
				"_isEnabled": true
			}
	},
	{
			 "_id": "co-200",
			 "_parentId": "course",
			 "_type": "page",
			 "_classes": "banner_01",
			 "height":"570",
			 "title": "Especificações e detalhes de ativos de vídeo",
			 "displayTitle": "Especificações e detalhes de ativos de vídeo",
			 "pageBody": "",
			 "body": "Aprenda as melhores práticas de duração, taxas, tipos de ativos e como criar vídeos com som.",
			 "_graphic": {
				 "src": "course/en/images/contentObjects/landing_04.jpg",
				 "alt": "Menina pinta porco de argila rosa"
			 },
			 "linkText": "Visualizar",
			 "durationLabel": "Duração:",
			 "duration": "5 min",
			 "_pageLevelProgress": {
				 "_isEnabled": true
			 }
	 },
	 {
				"_id": "co-250",
				"_parentId": "course",
				"_type": "page",
				"_classes": "banner_01",
				"height":"570",
				"title": "Métricas",
				"displayTitle": "Métricas",
				"pageBody": "",
				"body": "O Facebook fornece as métricas de desempenho para que você saiba se seu anúncio de vídeo está funcionando. Você pode saber mais sobre seu público, suas vendas e o alcance.",
				"_graphic": {
					"src": "course/en/images/contentObjects/landing_05.jpg",
					"alt": "Mulher sentada na cama olhando para seu laptop"
				},
				"linkText": "Visualizar",
				"durationLabel": "Duração:",
				"duration": "6 min",
				"_pageLevelProgress": {
					"_isEnabled": true
				}
		},
		{
				 "_id": "co-300",
				 "_parentId": "course",
				 "_type": "page",
				 "_classes": "banner_01",
				 "height":"570",
				 "title": "Conceitos de vídeo e quebra de mitos",
				 "displayTitle": "Conceitos de vídeo e quebra de mitos",
				 "pageBody": "",
				 "body": "Existem vários equívocos e mitos sobre o Vídeo do Facebook e vamos esclarecê-los.",
				 "_graphic": {
					 "src": "course/en/images/contentObjects/landing_06.jpg",
					 "alt": "Mulher trabalha no laptop em casa"
				 },
				 "linkText": "Visualizar",
				 "durationLabel": "Duração:",
				 "duration": "4 min",
				 "_pageLevelProgress": {
					 "_isEnabled": true
				 }
		 },
		 {
					"_id": "co-350",
					"_parentId": "course",
					"_type": "page",
					"_classes": "banner_01",
					"height":"570",
					"title": "Fundamentos básicos sobre vídeo",
					"displayTitle": "Fundamentos básicos sobre vídeo",
					"pageBody": "",
					"body": "Analise o resumo do curso antes de terminar a verificação de conhecimento.",
					"_graphic": {
						"src": "course/en/images/contentObjects/landing_07.jpg",
						"alt": "Mulher digita em seu computador em um prédio comercial"
					},
					"linkText": "Visualizar",
					"durationLabel": "Duração:",
					"duration": "2 min",
					"_pageLevelProgress": {
						"_isEnabled": true
					}
			},
			{
					 "_id": "co-400",
					 "_parentId": "course",
					 "_type": "page",
					 "_classes": "banner_01",
					 "height":"570",
					 "title": "Verificação de conhecimentos",
					 "displayTitle": "Verificação de conhecimentos",
					 "pageBody": "",
					 "body": "Vejamos como você se saiu ao escolher os fundamentos de vídeo!",
					 "_graphic": {
						 "src": "course/en/images/contentObjects/landing_08.jpg",
						 "alt": "Mulher olha para o celular em sua mesa de trabalho"
					 },
					 "linkText": "Visualizar",
					 "durationLabel": "Duração:",
					 "duration": "4 min",
					 "_pageLevelProgress": {
						 "_isEnabled": true
					 }
			 }

]
